Results
…
VarBV: DirDom was best for most components.

# Interesting differences between accuracy VarBV vs. VarTGV? 
accVars %>% 
  filter(ValidationData=="GBLUPs",VarMethod=="PMV") %>% 
  mutate(Model=ifelse(!grepl("DirDom",Model),"ClassicAD","DirDom"),
         Component=ifelse(Trait1==Trait2,"Variance","Covariance"),
         Trait=paste0(Trait1,"_",Trait2)) %>% 
  group_by(Model,predOf,Component,Trait,Trait1,Trait2) %>% 
  summarize(meanAcc=round(mean(AccuracyWtCor),3)) %>% 
  spread(predOf,meanAcc) %>% 
  mutate(diffAcc=VarTGV-VarBV) %>% arrange(Model,desc(diffAcc))

# A tibble: 24 x 8
# Groups:   Model, Component, Trait, Trait1 [24]
   Model     Component  Trait           Trait1   Trait2    VarBV VarTGV  diffAcc
   <chr>     <chr>      <chr>           <chr>    <chr>     <dbl>  <dbl>    <dbl>
 1 ClassicAD Covariance DM_logFYLD      DM       logFYLD  -0.036  0.048  0.0840 
 2 ClassicAD Covariance logFYLD_MCMDS   logFYLD  MCMDS     0.166  0.213  0.0470 
 3 ClassicAD Variance   logFYLD_logFYLD logFYLD  logFYLD   0.147  0.193  0.046  
 4 ClassicAD Covariance logFYLD_TCHART  logFYLD  TCHART   -0.016  0.024  0.04   
 5 ClassicAD Variance   stdSI_stdSI     stdSI    stdSI     0.172  0.197  0.025  
 6 ClassicAD Covariance DM_MCMDS        DM       MCMDS     0.059  0.079  0.02   
 7 ClassicAD Variance   biofortSI_biof… biofort… biofort…  0.076  0.09   0.0140 
 8 ClassicAD Covariance MCMDS_TCHART    MCMDS    TCHART    0.044  0.042 -0.00200
 9 ClassicAD Variance   MCMDS_MCMDS     MCMDS    MCMDS     0.243  0.239 -0.004  
10 ClassicAD Variance   TCHART_TCHART   TCHART   TCHART    0.147  0.113 -0.0340 
# … with 14 more rows
…
The largest increases (diffAcc = accVarTGV - accVarBV) were logFYLD-MCMDS (0.065) and logFYLD-TCHART (0.053) followed by the stdSI variance (0.04), all for the ClassicAD model. VarTGV was better predicted than VarBV for yield in the ClassicAD model (0.03), but decreased sharply (-0.08) for the DirDom model.

# Interesting differences between accuracy DirDom vs. ClassicAD? 
accVars %>% 
  filter(ValidationData=="GBLUPs",VarMethod=="PMV") %>% 
  mutate(Model=ifelse(!grepl("DirDom",Model),"ClassicAD","DirDom"),
         Component=ifelse(Trait1==Trait2,"Variance","Covariance"),
         Trait=paste0(Trait1,"_",Trait2)) %>% 
  group_by(Model,predOf,Component,Trait,Trait1,Trait2) %>% 
  summarize(meanAcc=round(mean(AccuracyWtCor),3)) %>% 
  spread(Model,meanAcc) %>% 
  mutate(diffAcc=DirDom-ClassicAD) %>% arrange(predOf,desc(diffAcc))

# A tibble: 24 x 8
# Groups:   predOf, Component, Trait, Trait1 [24]
   predOf Component  Trait           Trait1   Trait2   ClassicAD DirDom  diffAcc
   <chr>  <chr>      <chr>           <chr>    <chr>        <dbl>  <dbl>    <dbl>
 1 VarBV  Covariance DM_logFYLD      DM       logFYLD     -0.036 -0.008  0.0280 
 2 VarBV  Variance   logFYLD_logFYLD logFYLD  logFYLD      0.147  0.171  0.024  
 3 VarBV  Covariance DM_TCHART       DM       TCHART       0.261  0.266  0.005  
 4 VarBV  Variance   DM_DM           DM       DM           0.082  0.087  0.00500
 5 VarBV  Covariance MCMDS_TCHART    MCMDS    TCHART       0.044  0.046  0.002  
 6 VarBV  Variance   biofortSI_biof… biofort… biofort…     0.076  0.078  0.002  
 7 VarBV  Variance   TCHART_TCHART   TCHART   TCHART       0.147  0.146 -0.001  
 8 VarBV  Covariance logFYLD_TCHART  logFYLD  TCHART      -0.016 -0.02  -0.004  
 9 VarBV  Variance   stdSI_stdSI     stdSI    stdSI        0.172  0.163 -0.00900
10 VarBV  Variance   MCMDS_MCMDS     MCMDS    MCMDS        0.243  0.224 -0.0190 
# … with 14 more rows
…
